{
  "type": "service_account",
  "project_id": "karya-superapp",
  "private_key_id": "34e37f0dcb41ae8795b43c12df5f5970c41b66e4",
  "private_key": "-----BEGIN PRIVATE KEY-----\nMIIEvAIBADANBgkqhkiG9w0BAQEFAASCBKYwggSiAgEAAoIBAQCy+5arfKdHptYd\n37pHUfQ5zKsXrUXTA9guMs6O/Q2Q2BxbNQ9BaWAqq9n5iul3RqkSgSkWfUDJ9Kw4\nzfONMuzSxv31bmDx70fsQSfRtEA6/2EUO/1MawAHhNdSb4NY2YRrtX9/ksLqYSIE\nZIONn46NC1Zh/o0P/aHzBHV6YEKpPcyX9Y7vPWNcI2ZcmcIv9AQHqy6kSnW+eKp8\nuLj+p0LBfimHVynTZbUFnCZNFncGg9sxvvSZe1G9Z1OdVKVzqi4Vxs+vHIiuCgAP\nxvPKnwDnDzmUzgc44h2WWLwRRqKfZbiYFYvNM5zcKg89nLGkvYQIWaCALuZLuRp6\nm5/QochBAgMBAAECggEAFqqE0K/HEWxf5kWcdga7aoxwSF3Rn2D3whX+EZ6bVrH/\nmU9VYL/DBXRg9NiyK0BADg9cUDRJfanmG4V9Z+7AjgrUQ34YedsHHTS9IbH1hmMr\n/J+COui8Bre8evyTQi+9tNQ10saXt43YfHzsKgXATD1Y0a0mWRWSKk/wvrAtEPiD\npTZV0LvJxRh6tgYEvHSXS8jTf0gmpw6weuS6TRE/38Z0lHW5mUu1tpISrYK70wN8\nfaEZxcJ7GiKSV9Fy/4C2tEOGBmtzkpHr5gNsk4ENDUkjPS6RTKPgA2wiK2d5yLF4\nm8Sd534MQS14p5v2qsu2TTPLrcuCPU3nfn7kdeqsKQKBgQDo47xf5h9rF24jxz2g\n7h8NA05YytYHn+nm9ykltlNzVlyigsTYNCc3I9fUd1gSb64y7qYAwY07TXVgiWDt\n83h6qKgeKU7nsegjFPeEKpgcdeBzFAP+t2oI/LXNl2f0AMTdbcNfvJTNg2+4h057\n24fIuUd+KjbSfhxb9Dh/+7KqDQKBgQDEvmsXKMbJIAKMfQ/rM6IMDq01lvadTl9m\nVfHfgeYAxSSCKY+eOb0EwmtWxIEEGQHfr/pzGYuiSTasYlIb32Q0HP4M32DmTxNG\nPbgVW9bxFAopTlEiy34DcOaaZ/2VTlCeTOBJRaEdn/U+LBmMe+J2Q7ONBtRvQ9ph\nFRieeQbOBQKBgD5gKKcCyq1zNBOvHImK3ZQtq4FKqnKWWR58Wm/4WneMzPjVz4Uc\nytgQ6JDGejdN5DlOA/Y14O7eOy7k/KoeyMkJfSW+6JxT4RnsVrL2eZE93STVWpCR\nbXwEu2jaQYRv5EpuSKLOrogwyO6ChvnTfZW8UjKvecl873mNesiEkIDNAoGAHZsh\n9lw2fbGJcKapLJWafwH+YqATAFz40ieAvEeJ2vfPpJ6odADwRrUS/f2YBIvW0lhi\n8csYThWCWrJ49KTLKWRrfnhm1oFzvxAukVg+ogyH8utMHlZM4iutJ/MaH8unKgsb\nfSszMYgOmYp9VbyWuYE6lbA/a3bkd9N63u4LbhkCgYAnYwf5aER/apAiPM2IkA72\nya94cJTybs5JFFkYR4xHxhLKlwdEHLWBGF7CKVMduV7ygRMYG7v+pmAUtcslJkMQ\n5KaQp15RNoLRQpGtekwjXkDGm6Tktg5MoA3ezjc4zQ0/FIq98hB8nacGQsc9A6ns\nRElkK1dpCc6h9sZ0ROTIYQ==\n-----END PRIVATE KEY-----\n",
  "client_email": "firebase-adminsdk-mndhs@karya-superapp.iam.gserviceaccount.com",
  "client_id": "108980895621002491905",
  "auth_uri": "https://accounts.google.com/o/oauth2/auth",
  "token_uri": "https://oauth2.googleapis.com/token",
  "auth_provider_x509_cert_url": "https://www.googleapis.com/oauth2/v1/certs",
  "client_x509_cert_url": "https://www.googleapis.com/robot/v1/metadata/x509/firebase-adminsdk-mndhs%40karya-superapp.iam.gserviceaccount.com"
}
